{
  "name": "dnd5e_fr-FR",
  "title": "fr-FR - DND5 System",
  "description": "<p>Traduction du system DD5 [Atropos]. L'installation du module Babele est nécessaire pour les compendiums [texte du SRD : site aidedd.org]</p><p> *** Rejoignez la communauté Discord FR :<a href='https://discord.gg/pPSDNJk'> https://discord.gg/pPSDNJk </a></p>",
  "author": "Baktov, Rwanoux, Olirin, thorni, jyah, Temvaryen, Matt D, Nedgehog, Pierrick, Padhiver, Yogiteck, DarKDinDoN",
  "authors": [],
  "url": "https://gitlab.com/baktov.sugar/foundryvtt-dnd5e-lang-fr-fr",
  "flags": {},
  "version": "1.60.3",
  "minimumCoreVersion": "9",
  "compatibleCoreVersion": "9",
  "systems": [
    "dnd5e"
  ],
  "scripts": [],
  "esmodules": [
    "babele-register.js"
  ],
  "styles": [],
  "languages": [
    {
      "lang": "fr",
      "name": "Français",
      "path": "fr.json"
    }, 
    {
      "lang": "zz",
      "name": "En.1.6.0",
      "path": "en.1.6.0.json"
    }
  ],
  "packs": [],
  "dependencies": [
    {
      "name": "babele",
      "type": "module"
    },
    {
      "name": "lib-wrapper"
    },
    {
      "name": "dnd5e",
      "type": "system"
    }
  ],
  "socket": false,
  "manifest": "https://gitlab.com/baktov.sugar/foundryvtt-dnd5e-lang-fr-fr/raw/master/dnd5e_fr-FR/module.json",
  "download": "https://gitlab.com/baktov.sugar/foundryvtt-dnd5e-lang-fr-fr/-/jobs/artifacts/dnd5_fr-1.60.3/raw/dnd5e_fr-FR.zip?job=build",
  "protected": false,
  "coreTranslation": false
}